<?xml version="1.0" encoding="utf-8"?>
<!-- Generator: Adobe Illustrator 23.0.2, SVG Export Plug-In . SVG Version: 6.00 Build 0)  -->
<svg version="1.1" id="Слой_1" xmlns="http://www.w3.org/2000/svg" xmlns:xlink="http://www.w3.org/1999/xlink" x="0px" y="0px"
	 viewBox="0 0 250 250" style="enable-background:new 0 0 250 250;" xml:space="preserve">
<style type="text/css">
	.st0{fill:#FFFFFF;}
</style>
<path class="st0" d="M54.53,0c46.09,0,91.83,0,137.35,0c0,6.31,0.27,12.48-0.05,18.62c-1.38,26.23-5.74,51.9-14.98,76.6
	c-5.44,14.55-12.37,28.27-23.03,39.8c-6.01,6.5-12.92,11.77-21.62,14.08c-12.93,3.43-24.02-0.67-33.79-9.06
	c-11.59-9.95-19.01-22.84-24.97-36.63C64.5,82.74,59.36,61.05,57,38.72c-1.18-11.16-1.68-22.39-2.45-33.6
	C54.43,3.47,54.53,1.81,54.53,0z"/>
<path class="st0" d="M74.72,224.91c0.99-1.36,1.39-2.49,2.16-2.89c9.3-4.74,15.29-12.64,20.39-21.34
	c7.49-12.78,12.13-26.69,15.76-40.98c0.72-2.83,1.37-5.68,1.99-8.27c5.63,0,11.04,0,16.83,0c1.22,4.7,2.46,9.86,3.91,14.96
	c3.79,13.37,8.63,26.32,16.27,38.04c4.7,7.21,10.2,13.6,18.07,17.59c0.77,0.39,1.17,1.53,2.15,2.89
	C139.53,224.91,107.73,224.91,74.72,224.91z"/>
<path class="st0" d="M182.09,250c-39.22,0-77.95,0-116.86,0c0-5.33-0.43-10.58,0.13-15.71c0.47-4.25,4.6-7.2,8.96-7.55
	c1.05-0.08,2.1-0.08,3.15-0.08c30.68,0,61.37-0.01,92.05,0c8.92,0,12.56,3.67,12.57,12.64C182.09,242.75,182.09,246.21,182.09,250z"
	/>
<path class="st0" d="M22.42,18.97c10.83,0,20.87,0,31.12,0c0.22,3.07,0.43,5.98,0.66,9.33c-7.12,0-14.19,0-21.94,0
	c0.46,5.02,0.73,9.57,1.33,14.08c2.03,15.35,6.36,29.96,14.69,43.16c5.89,9.32,13.21,17.12,23.78,21.25
	c0.79,0.31,1.57,1.06,1.98,1.81c1.6,2.93,3.05,5.95,5.07,9.96c-4.22-1.12-7.76-1.73-11.06-2.99c-10.88-4.16-19.01-11.81-25.57-21.2
	C31.27,78.31,25.75,60.17,23.66,40.9C22.89,33.73,22.82,26.48,22.42,18.97z"/>
<path class="st0" d="M193.43,18.89c10.36,0,20.32,0,30.61,0c0,5.29,0.31,10.51-0.06,15.67c-1.32,18.31-5.56,35.85-14.56,52.02
	c-5.49,9.86-12.44,18.45-22.01,24.69c-6.19,4.04-12.58,6.29-19.17,6.64c1.75-3.49,3.38-6.81,5.1-10.08c0.25-0.48,0.94-0.81,1.5-1.03
	c10.8-4.2,18.22-12.17,24.15-21.73c9.04-14.58,13.29-30.71,14.99-47.62c0.28-2.81,0.42-5.63,0.66-8.89c-7.37,0-14.45,0-21.82,0
	C193.04,25.15,193.23,22.17,193.43,18.89z"/>
</svg>
