<?xml version="1.0" encoding="utf-8"?>
<!-- Generator: Adobe Illustrator 23.0.2, SVG Export Plug-In . SVG Version: 6.00 Build 0)  -->
<svg version="1.1" id="Слой_1" xmlns="http://www.w3.org/2000/svg" xmlns:xlink="http://www.w3.org/1999/xlink" x="0px" y="0px"
	 viewBox="0 0 250 250" style="enable-background:new 0 0 250 250;" xml:space="preserve">
<style type="text/css">
	.st0{fill:#FFFFFF;}
</style>
<g>
	<g>
		<path class="st0" d="M23.74,200.68c-8.18,0-15.87,0-23.74,0c0-34.86,0-69.07,0-103.69c2.49-0.21,4.94-0.61,7.38-0.58
			c7.7,0.08,15.4,0.37,23.1,0.47c2.37,0.03,3.26,1.27,3.98,3.31c5.9,16.64,11.89,33.25,17.86,49.86c0.23,0.63,0.54,1.24,1.15,2.63
			c1.94-5.22,3.68-9.8,5.34-14.42c4.65-12.88,9.22-25.79,13.99-38.63c0.43-1.16,2-2.49,3.2-2.67c10.26-1.54,20.54-1.17,31.23,0.1
			c0,1.32,0,2.53,0,3.74c0,31.87-0.03,63.74,0.05,95.62c0.01,2.7-0.38,4.33-3.51,4.31c-5.42-0.05-10.84,0.03-16.27,0.11
			c-3.3,0.05-4.26-1.34-4.23-4.73c0.19-19.96,0.09-39.92,0.09-59.89c0-1.12,0-2.24,0-3.36c-0.21-0.07-0.42-0.14-0.63-0.21
			c-0.65,1.71-1.32,3.42-1.94,5.15c-5.36,14.91-10.77,29.8-16.01,44.75c-0.73,2.08-1.78,3-3.85,2.99c-4.86-0.01-9.71-0.04-14.57,0
			c-2.63,0.02-3.93-1.18-4.8-3.71c-5.44-15.72-11.04-31.39-16.6-47.07c-0.18-0.52-0.41-1.02-1.23-1.49
			C23.74,155.57,23.74,177.85,23.74,200.68z"/>
		<path class="st0" d="M235.71,83.8c-6.18-1.44-11.99-2.79-18.07-4.2c2.35-2.96,0.65-5.2-1.43-7.29c-3.88-3.92-7.8-7.79-11.7-11.67
			c-3.23,4.6-6.12,8.6-8.83,12.72c-0.37,0.56-0.05,1.84,0.35,2.58c0.55,1.05,1.47,1.9,2.43,3.07c-6.16,0.38-11.89,0.74-18.55,1.15
			c2.79-2.26,4.85-3.92,7.56-6.11c-5.06-4.08-9.83-7.97-14.69-11.76c-0.41-0.32-1.55-0.18-2.04,0.17c-3.41,2.4-6.74,4.92-10.36,7.59
			c2.26,3.56,4.54,7.16,7.17,11.3c-3.88-0.55-7.21-0.58-8.94-4.25c-0.43-0.91-1.2-1.66-1.68-2.55c-1.03-1.9-2.26-2.35-4.43-1.5
			c-3.37,1.31-6.88,2.28-10.39,3.17c-1.94,0.49-3.28,1.05-2.06,3.65c-0.23,0.21-0.46,0.41-0.69,0.62c-1.89-0.75-3.75-2.05-5.67-2.12
			c-3.31-0.12-6.65,0.59-9.98,0.84c-1.78,0.13-3.59,0.13-5.37,0.02c-4.33-0.27-8.66-3.1-13.01,0.43c-0.87,0.71-2.8,0.1-4.47,0.1
			c0-1.15,0-2.06,0-2.93c-4.55-1.52-9.02-3.12-13.57-4.44c-0.86-0.25-2.21,0.4-3.02,1.03c-0.86,0.66-1.51,1.72-1.97,2.74
			c-1.64,3.63-4.52,4.37-8.61,3.65c2.31-3.57,4.49-6.94,6.77-10.46c-3.71-2.76-7.4-5.51-11.56-8.61
			c-4.84,3.98-9.79,8.04-15.41,12.65c4.4,3.29,8.23,6.14,12.05,8.99c-3.85,3.64-3.88,3.67-8.05,0.66c-2.39-1.72-4.69-3.56-7.41-5.63
			c-1.94,2.2-3.93,4.45-6.11,6.91c-1.35-0.81-2.67-1.6-4.41-2.65c2.26-2.74,4.45-5.39,6.54-7.92c-2.87-4.6-5.67-9.08-8.98-14.38
			c-4.75,4.8-9.62,9.43-14.04,14.46c-0.81,0.92,0.23,3.46,0.44,5.4c-4.83,0-9.88,0-15.45,0c6.24-15.73,15.26-29.37,27.18-41.02
			C55.18,18.72,79.1,7.1,106.83,3.85C167.03-3.21,218.78,34.5,235.71,83.8z M120.41,56.96c8.85-0.09,16.83-1.48,24.1-5.64
			c4.86-2.78,9.28-6.3,9.33-12.44c0.05-6.32-4.32-10.21-9.47-12.64c-17-8.01-33.88-8.28-50.05,2.24c-7.95,5.17-8.24,13.76-1,19.92
			c1.37,1.17,2.89,2.19,4.47,3.07C104.98,55.48,112.84,56.86,120.41,56.96z M175.76,57.45c5.11,4.29,10.17,8.54,15.75,13.23
			c2.74-4.36,5.38-8.56,8.37-13.29c-6.87-3.3-12.91-6.2-18.91-9.09C179,51.76,177.39,54.58,175.76,57.45z M65.57,56.57
			c-1.6-2.96-3.13-5.8-4.91-9.09c-5.58,2.72-10.99,5.27-16.29,8.04c-0.73,0.38-1.5,2.19-1.19,2.8c1.96,3.86,4.22,7.58,6.45,11.44
			C55.33,65.04,60.37,60.87,65.57,56.57z M107.49,61c-3.13-1.13-5.96-2.23-8.84-3.12c-0.69-0.22-1.91-0.02-2.36,0.47
			c-2.5,2.7-4.84,5.56-7.8,9.01c5.29,1.62,9.84,3.02,14.58,4.48C104.66,67.92,106.05,64.52,107.49,61z M152.28,67.94
			c-2.92-3.43-5.12-6.14-7.5-8.7c-0.56-0.6-1.81-1.06-2.56-0.87c-3.04,0.8-6,1.89-9.23,2.94c1.27,3.18,2.41,6.24,3.76,9.2
			c0.26,0.57,1.45,1.22,2.03,1.08C143.03,70.57,147.23,69.34,152.28,67.94z M200.4,51.56c1.34-4.02,1.18-4.04-1.55-6.94
			c-4.62-4.93-10.14-7.91-16.92-8.82c0,2.03-0.17,3.83,0.07,5.58c0.13,0.91,0.79,2.14,1.55,2.51
			C189.12,46.54,194.78,49.02,200.4,51.56z M59.96,35.23c-7.54,0.43-12.43,5.29-17.45,10.05c-1.73,1.64-2.14,3.26-1.19,5.29
			c5.85-2.54,11.63-5.02,17.35-7.6c0.57-0.26,1.18-1.11,1.23-1.74C60.06,39.25,59.96,37.24,59.96,35.23z M167.62,58.58
			c-3.64-1.97-6.56-3.62-9.54-5.14c-5.02-2.56-5.31-2.46-9.21,2.13c2.26,2.78,4.45,5.66,6.87,8.34c0.53,0.58,2.11,0.94,2.73,0.59
			C161.38,62.83,164.13,60.88,167.62,58.58z M92.72,54.07c-2.22-1.05-4.5-3.1-5.94-2.63c-4.31,1.42-8.29,3.82-13.33,6.3
			c3.95,2.75,7.08,4.93,10.26,7.15C86.82,61.15,89.54,57.89,92.72,54.07z M175.92,46.58c-6.23-1.56-11.61-2.9-17.01-4.26
			c-0.74,1.92-1.26,3.24-1.79,4.61c4.74,2.54,9.27,4.96,14.16,7.58C172.76,51.97,174.16,49.59,175.92,46.58z M65.91,46
			c1.61,2.97,2.87,5.3,4.19,7.73c5.01-2.65,9.64-5.1,14.38-7.61c-0.54-1.5-0.99-2.75-1.59-4.38C77.31,43.13,71.91,44.49,65.91,46z
			 M158.65,31.87c-0.26,0.45-0.53,0.9-0.79,1.36c0.78,1.35,1.28,3.58,2.37,3.91c5.32,1.63,10.79,2.75,16.24,4.06
			c0.48-4.85-0.09-7.23-2.16-7.54C169.11,32.89,163.87,32.44,158.65,31.87z M83.75,32.45c-4.23,0-8.49-0.24-12.71,0.06
			c-5.33,0.38-6.53,2.35-5.38,8.02c4.59-1.09,9.14-2.41,13.78-3.19C82.41,36.84,83.82,35.56,83.75,32.45z M118.25,61.39
			c-2.37,0.77-4.97,0.81-5.84,2.06c-1.75,2.52-2.57,5.69-4,9.16c3.56,0.28,6.61,0.52,9.84,0.77
			C118.25,69.43,118.25,66.07,118.25,61.39z M131.78,72.88c-4.47-12.34-4.25-11.74-7.95-10.28c0,3.48,0,6.94,0,10.75
			C126.53,73.19,128.96,73.05,131.78,72.88z M153.19,25.92c6.22,1.94,12.77,0.33,19.62,2.16C169.31,22.42,162.79,21.73,153.19,25.92
			z M88.67,26.56c-7.35-4.17-16.87-4.8-18.3,0C76.4,26.56,82.54,26.56,88.67,26.56z M154.61,18.93c-5.77-2.7-7.53-2.48-10.53,0.91
			C147.94,23.11,151.12,19.38,154.61,18.93z M87.12,19.11c7.63,3.04,7.63,3.04,10.21,0.57C92.9,16.47,91.33,16.38,87.12,19.11z
			 M139.98,14.5c-2.49,0.75-5.21-1.88-7.14,1.72C135.73,17.4,138.1,18.27,139.98,14.5z M100.79,14.82c2.32,3.26,4.49,3.1,6.98,1.64
			C106.33,12.65,103.61,15.26,100.79,14.82z M113.07,13.57c-0.11,0.47-0.22,0.93-0.32,1.4c1.05,0.2,2.1,0.59,3.13,0.53
			c0.88-0.06,1.72-0.65,2.58-1c-0.11-0.31-0.22-0.62-0.33-0.92C116.45,13.57,114.76,13.57,113.07,13.57z M206.42,52.83
			c-0.87,2.85,0.62,4.62,4.61,5.74C209.43,56.57,208,54.79,206.42,52.83z"/>
		<path class="st0" d="M228.77,157.57c7.15,14.44,14.08,28.4,21.23,42.83c-8.48,1.38-16.53,1.31-24.57,0.02
			c-0.8-0.13-1.62-1.41-2.07-2.34c-5.54-11.4-11.09-22.8-16.42-34.29c-1.17-2.53-2.55-3.68-5.32-3.39
			c-1.78,0.19-3.59,0.03-5.84,0.03c0,13.29,0,26.47,0,40.28c-8.59,0-16.74,0-25.06,0c0-34.48,0-68.34,0-102.6
			c4.63-0.46,9.22-1.32,13.81-1.3c12.54,0.03,25.23-0.65,37.6,0.97c15.31,2.01,21.92,10.27,23.03,25.64
			c0.35,4.82,0.14,9.77-0.51,14.57C243.39,147.36,238.11,153.92,228.77,157.57z M195.91,145.58c5.69-0.38,11.22-0.42,16.63-1.2
			c4.36-0.63,6.77-3.47,7.04-7.95c0.32-5.28,0.29-10.6-0.01-15.88c-0.22-3.96-2.51-7.09-6.52-7.64c-5.63-0.77-11.37-0.81-17.14-1.16
			C195.91,123.28,195.91,134.09,195.91,145.58z"/>
		<path class="st0" d="M126,184.99c0-24.35,0-48.12,0-72.39c-2.24,0-4.39,0.23-6.45-0.1c-0.99-0.16-2.53-1.32-2.59-2.11
			c-0.26-3.93-0.24-7.89,0-11.82c0.04-0.73,1.52-1.97,2.35-1.98c12.93-0.13,25.85-0.13,38.78,0c0.81,0.01,2.24,1.28,2.31,2.05
			c0.3,3.7,0.29,7.43,0.28,11.14c-0.01,2.33-1.36,3.05-3.58,2.85c-1.77-0.16-3.57-0.03-5.59-0.03c0,24.18,0,48.04,0,72.39
			c2.03,0,4.04,0.12,6.02-0.03c2.03-0.16,2.94,0.69,3.09,2.63c0.06,0.79,0.29,1.56,0.36,2.35c0.86,10.82,0.53,11.17-10.12,11.17
			c-10.09,0-20.19-0.11-30.27,0.07c-2.82,0.05-3.95-0.92-3.91-3.6c0.06-3.38,0.11-6.77,0.14-10.15c0.02-1.9,0.99-2.55,2.82-2.45
			C121.66,185.07,123.69,184.99,126,184.99z"/>
		<path class="st0" d="M56.77,215.45c-2.09-4.69-3.74-8.39-5.4-12.13c4.88-1.3,5.1-1.21,6.88,2.76
			c5.48,12.24,6.13,12.79,19.17,15.95c2.71,0.66,5.46,1.18,8.55,1.84c-0.6-2.35-1.07-4.17-1.56-6.1c3.59-0.88,5.82-0.03,6.41,3.8
			c0.39,2.53,1.92,3.76,4.63,3.94c7.44,0.51,14.86,1.24,22.87,1.93c0-3.52,0-6.49,0-9.61c1.97,0,3.39,0,5.23,0c0,3,0,5.89,0,9.43
			c5.93-0.39,11.42-0.75,16.91-1.13c0.68-0.05,1.36-0.33,2.02-0.26c4.61,0.43,7.13-1.54,7.91-6.17c0.57-3.35,3.26-1.68,5.63-1.95
			c-0.52,2.13-0.96,3.94-1.67,6.89c7.23-2.05,13.87-3.93,20.51-5.83c0.72-0.21,1.39-0.73,2.1-0.77c8.42-0.49,16.85-0.91,24.22-1.3
			c-42.98,40.87-119.04,41.93-165.21-4.53c1.44-3.07,2.86-6.09,4.35-9.26C45.39,206.95,49.39,212.67,56.77,215.45z M118.18,232.58
			c-7.53-0.55-14.84-1.08-22.15-1.61c-0.07,0.38-0.13,0.75-0.2,1.13c6.35,5.87,14.65,3.55,22.35,5.12
			C118.18,235.39,118.18,234.19,118.18,232.58z M123.77,237.29c5.44-0.63,10.56-1.31,15.69-1.79c2.72-0.26,4.12-1.8,5.26-4.41
			c-7.16,0.52-13.97,1.01-20.94,1.52C123.77,234.05,123.77,235.25,123.77,237.29z M150.77,231.64c0.17,0.46,0.34,0.92,0.5,1.37
			c4.66-1.66,9.31-3.31,13.97-4.97c-0.1-0.28-0.2-0.56-0.3-0.84C160.38,229.15,154.79,228.06,150.77,231.64z M76.93,227.17
			c-0.1,0.28-0.2,0.57-0.3,0.85c4.26,1.51,8.51,3.02,12.77,4.54c0.12-0.34,0.24-0.68,0.36-1.02
			C86.38,227.51,80.99,229.25,76.93,227.17z"/>
	</g>
</g>
</svg>
