<?xml version="1.0" encoding="utf-8"?>
<!-- Generator: Adobe Illustrator 23.0.2, SVG Export Plug-In . SVG Version: 6.00 Build 0)  -->
<svg version="1.1" id="Слой_1" xmlns="http://www.w3.org/2000/svg" xmlns:xlink="http://www.w3.org/1999/xlink" x="0px" y="0px"
	 viewBox="0 0 250 250" style="enable-background:new 0 0 250 250;" xml:space="preserve">
<style type="text/css">
	.st0{fill:#FFFFFF;}
</style>
<path class="st0" d="M16.31,125.15c0-36.91,0-73.82,0-110.73c0-10.98,3.3-14.32,14.13-14.32C79.65,0.08,128.87,0.12,178.08,0
	c5.48-0.01,9.84,1.57,13.7,5.49c12.36,12.54,25.09,24.71,37.16,37.51c2.82,2.99,5.04,7.91,5.06,11.95
	c0.33,60.95,0.25,121.9,0.23,182.84c0,8.29-3.88,12.17-12.22,12.17c-64.36,0.04-128.71,0.04-193.07,0
	c-9.18-0.01-12.57-3.62-12.59-13.53c-0.07-37.1-0.03-74.2-0.03-111.3C16.32,125.15,16.31,125.15,16.31,125.15z M125.31,117.04
	c-3.88-5-6.91-9.36-10.47-13.24c-1.18-1.29-4.13-2.37-5.56-1.79c-9.07,3.71-18.21,7.45-26.77,12.18c-3.64,2.01-7.73,6.13-8.45,9.9
	c-1.75,9.06-1.63,18.48-2.28,27.96c36.27,0,70.98,0,106.17,0c0-7.64,0.17-14.96-0.05-22.27c-0.24-7.96-4.5-13.48-11.55-16.79
	c-7.86-3.69-15.88-7.02-23.73-10.73c-3.1-1.47-5.18-1.13-7.22,1.73C132.37,108.25,129.01,112.29,125.31,117.04z M98.97,62.85
	c0.27,10.22,3.79,19.13,11.94,25.8c9.31,7.62,21.04,7.21,29.99-0.85c5.72-5.16,8.96-11.76,10.12-19.21
	c1.59-10.24,0.16-19.93-8.92-26.47c-9.41-6.78-19.82-7.14-30.11-2.21C102.59,44.41,99.1,52.7,98.97,62.85z M124.83,189.84
	c21.38,0,42.77,0.02,64.15-0.01c6.03-0.01,9.16-2.42,9.17-6.84c0.01-4.56-3.03-7.15-8.91-7.15c-42.58-0.05-85.16-0.05-127.74-0.01
	c-6.04,0-9.18,2.48-9.18,6.87c0,4.65,3.24,7.13,9.49,7.14C82.82,189.85,103.83,189.84,124.83,189.84z M125.85,207.72
	c-11.16,0-22.31-0.04-33.47,0.02c-6.01,0.03-9.22,2.55-9.12,6.9c0.11,4.48,3.29,7.04,9.07,7.05c21.93,0.03,43.87,0.04,65.8,0
	c5.91-0.01,9.21-2.6,9.14-6.93c-0.08-4.42-3.28-6.98-9.09-7.01C147.41,207.68,136.63,207.72,125.85,207.72z M186.65,21.32
	c0,8.77,0,17.51,0,26.28c9.15,0,17.84,0,26.32,0C204.17,38.82,195.49,30.14,186.65,21.32z"/>
</svg>
