<?xml version="1.0" encoding="utf-8"?>
<!-- Generator: Adobe Illustrator 23.0.2, SVG Export Plug-In . SVG Version: 6.00 Build 0)  -->
<svg version="1.1" id="Слой_1" xmlns="http://www.w3.org/2000/svg" xmlns:xlink="http://www.w3.org/1999/xlink" x="0px" y="0px"
	 viewBox="0 0 250 250" style="enable-background:new 0 0 250 250;" xml:space="preserve">
<style type="text/css">
	.st0{fill:#FFFFFF;}
</style>
<path class="st0" d="M154.8,64.71c-0.74-0.37-1.47-0.78-2.23-1.11c-22.72-9.97-45.43-19.95-68.19-29.81
	c-1.52-0.66-3.56-0.8-5.18-0.42c-8.8,2.02-17.55-2.7-20.3-11.2c-2.77-8.52,1.52-17.69,9.8-20.96c8.43-3.33,17.93,0.45,21.61,8.77
	c0.86,1.95,2.08,3.01,3.96,3.83c36.52,15.98,73.03,31.98,109.51,48.06c5.89,2.6,11.79,4.55,18.36,3.82
	c2.67-0.29,5.41-0.12,8.11-0.01c11.17,0.49,19.88,9.31,19.9,20.48c0.06,41.72,0,83.44-0.01,125.16c0,5.79,0.09,11.59,0.1,17.38
	c0.03,11.9-9.07,21.25-21,21.26c-69.34,0.05-138.68,0.05-208.02,0c-11.94-0.01-21.15-9.19-21.17-21.15
	c-0.07-47.22-0.07-94.45,0-141.67c0.02-12.69,9.08-21.46,22-21.48c34.77-0.04,69.53,0,104.3-0.03c8.79-0.01,17.57-0.13,26.35-0.21
	c0.66-0.01,1.32-0.1,1.98-0.16C154.73,65.08,154.77,64.9,154.8,64.71z M52.2,212.55c18.75,0.02,33.97-15.08,34.03-33.78
	c0.06-18.76-15.3-34.16-34.05-34.12c-18.69,0.04-33.81,15.24-33.81,34C18.37,197.47,33.39,212.53,52.2,212.55z M232.78,182.08
	c0-2.58,0.07-4.78-0.01-6.97c-0.14-3.91-0.2-3.93-4.22-3.93c-32.84,0-65.67,0-98.51,0c-7.06,0-6.96,0-7.12,7.18
	c-0.06,2.76,0.5,3.81,3.62,3.8c34.29-0.13,68.57-0.08,102.86-0.08C230.42,182.08,231.45,182.08,232.78,182.08z M230.4,194.74
	c-35.38,0-69.94,0-105.12,0c1.4,3.21,2.69,5.96,3.8,8.8c0.76,1.94,2.03,2.43,4.02,2.41c12.15-0.08,24.31-0.04,36.47-0.04
	c17.65,0,35.31,0.02,52.96-0.05c1.11,0,2.79-0.37,3.21-1.12C227.43,201.67,228.75,198.38,230.4,194.74z M126.19,159.27
	c34.69,0,68.58,0,103.22,0c-1.89-3.57-3.45-6.74-5.25-9.76c-0.36-0.6-1.63-0.93-2.49-0.93c-29.26-0.05-58.52-0.04-87.78-0.01
	c-0.8,0-2.02,0.18-2.32,0.7C129.75,152.38,128.13,155.61,126.19,159.27z M140.75,218.06c-0.14,0.25-0.27,0.49-0.41,0.74
	c3.11,2.23,6.19,4.5,9.34,6.68c3.26,2.27,6.79,3.18,10.87,3.11c11.67-0.23,23.35-0.27,35.01-0.02c8.54,0.19,13.62-5.53,19.35-10.51
	C190.19,218.06,165.47,218.06,140.75,218.06z M212.48,136.01c-4.84-3.67-9.24-6.25-14.11-8.19c-7.92-3.14-16.15-2.13-24.3-2.45
	c-6.27-0.25-12.26,0.49-18.08,2.94c-4.41,1.86-8.39,4.31-12.81,7.7C166.61,136.01,189.1,136.01,212.48,136.01z M150.97,91.94
	c-0.08-6.43-5.3-11.53-11.71-11.47c-6.4,0.06-11.6,5.29-11.59,11.64c0.02,6.43,5.49,11.8,11.9,11.66
	C145.93,103.64,151.06,98.32,150.97,91.94z M212.22,92.12c0.02,6.36,5.25,11.62,11.6,11.65c6.44,0.03,11.79-5.38,11.71-11.84
	c-0.09-6.38-5.34-11.51-11.75-11.46C217.37,80.52,212.2,85.73,212.22,92.12z M74.51,92.68c0.02,6.37,5.22,11.61,11.58,11.66
	c6.44,0.05,11.76-5.34,11.68-11.84c-0.08-6.41-5.32-11.54-11.72-11.47C79.62,81.1,74.49,86.27,74.51,92.68z M46.06,92.67
	c0,6.4,5.17,11.63,11.54,11.68c6.43,0.05,11.8-5.36,11.73-11.82c-0.07-6.37-5.35-11.54-11.73-11.49
	C51.16,81.08,46.06,86.23,46.06,92.67z M41.29,92.76c0.05-6.42-5.01-11.61-11.46-11.72c-6.38-0.11-11.68,4.99-11.82,11.39
	c-0.14,6.44,5.21,11.91,11.63,11.91C36.01,104.34,41.24,99.14,41.29,92.76z M207.48,92.13c0.02-6.42-5.07-11.59-11.5-11.67
	c-6.39-0.08-11.66,5.06-11.74,11.45c-0.09,6.47,5.24,11.89,11.67,11.86C202.24,103.74,207.45,98.5,207.48,92.13z M155.75,92.09
	c0,6.37,5.2,11.63,11.54,11.69c6.43,0.06,11.77-5.32,11.71-11.81c-0.05-6.38-5.29-11.53-11.69-11.49
	C160.91,80.5,155.75,85.68,155.75,92.09z"/>
</svg>
